{
  "project_info": {
    "project_number": "698347013266",
    "firebase_url": "https://dare-android-1483721003554.firebaseio.com",
    "project_id": "dare-android-1483721003554",
    "storage_bucket": "dare-android-1483721003554.appspot.com"
  },
  "client": [
    {
      "client_info": {
        "mobilesdk_app_id": "1:698347013266:android:7fbda993d04498f1",
        "android_client_info": {
          "package_name": "com.example.warefhaque.dareandroid"
        }
      },
      "oauth_client": [
        {
          "client_id": "698347013266-5lrm41ogorkdmspp06qlvpuuntjd844d.apps.googleusercontent.com",
          "client_type": 3
        }
      ],
      "api_key": [
        {
          "current_key": "AIzaSyA_x_T5w8fZhcFAKsEMcNzAlXzPaHii8aw"
        }
      ],
      "services": {
        "analytics_service": {
          "status": 1
        },
        "appinvite_service": {
          "status": 1,
          "other_platform_oauth_client": []
        },
        "ads_service": {
          "status": 2
        }
      }
    }
  ],
  "configuration_version": "1"
}